{
    "count": 23,
    "next": "http://localhost:8000/urqa/v2/api/27FF433A/errors?page=3",
    "previous": "http://localhost:8000/urqa/v2/api/27FF433A/errors",
    "results": [
        {
            "iderror": 387633,
            "rank": 0,
            "autodetermine": 0,
            "status": 1,
            "numofinstances": 5,
            "createdate": "2015-04-20T02:09:33Z",
            "lastdate": "2015-04-20T08:31:45Z",
            "callstack": "java.lang.NullPointerException\n\tat tws.app.search.air.activitys.SearchResult.onClick(SearchResult.java:6159)\n\tat android.view.View.performClick(View.java:4473)\n\tat android.view.View$PerformClick.run(View.java:18589)\n\tat android.os.Handler.handleCallback(Handler.java:733)\n\tat android.os.Handler.dispatchMessage(Handler.java:95)\n\tat android.os.Looper.loop(Looper.java:136)\n\tat android.app.ActivityThread.main(ActivityThread.java:5094)\n\tat java.lang.reflect.Method.invokeNative(Native Method)\n\tat java.lang.reflect.Method.invoke(Method.java:515)\n\tat com.android.internal.os.ZygoteInit$MethodAndArgsCaller.run(ZygoteInit.java:792)\n\tat com.android.internal.os.ZygoteInit.main(ZygoteInit.java:608)\n\tat dalvik.system.NativeStart.main(Native Method)\n",
            "errorname": "java.lang.NullPointerException",
            "errorclassname": "tws.app.search.air.activitys.SearchResult",
            "linenum": "6159",
            "errorweight": 10,
            "recur": 0,
            "eventpath": null,
            "wifion": 5,
            "gpson": 5,
            "mobileon": 0,
            "totalmemusage": 300,
            "gain1": null,
            "gain2": null,
            "pid": 878
        },
        {
            "iderror": 387761,
            "rank": 0,
            "autodetermine": 0,
            "status": 0,
            "numofinstances": 1,
            "createdate": "2015-04-20T04:04:25Z",
            "lastdate": "2015-04-20T04:04:25Z",
            "callstack": "java.lang.OutOfMemoryError\n\tat tws.air.CrossView.NaviCrossViewMgr.ReadFile(SourceFile:143)\n\tat tws.air.CrossView.NaviCrossViewMgr.GetExistExtMapInfo(SourceFile:192)\n\tat tws.air.NaviAdapter.NaviCrossViewAdapter.GetExistExtMapInfo(SourceFile:194)\n\tat tws.air.inaviair.M_NaviMainThread.c(SourceFile:9413)\n\tat tws.air.inaviair.M_NaviMainThread.run(SourceFile:1137)\n\tat java.lang.Thread.run(Thread.java:841)\n",
            "errorname": "java.lang.OutOfMemoryError",
            "errorclassname": "tws.air.CrossView.NaviCrossViewMgr",
            "linenum": "143",
            "errorweight": 10,
            "recur": 0,
            "eventpath": null,
            "wifion": 1,
            "gpson": 1,
            "mobileon": 0,
            "totalmemusage": 63,
            "gain1": null,
            "gain2": null,
            "pid": 878
        },
        {
            "iderror": 387767,
            "rank": 0,
            "autodetermine": 0,
            "status": 0,
            "numofinstances": 2,
            "createdate": "2015-04-20T04:07:45Z",
            "lastdate": "2015-04-20T04:25:23Z",
            "callstack": "java.lang.NullPointerException\n\tat tws.app.search.air.activitys.ActyRSchResult.onClick(ActyRSchResult.java:1951)\n\tat android.view.View.performClick(View.java:4473)\n\tat android.view.View$PerformClick.run(View.java:18589)\n\tat android.os.Handler.handleCallback(Handler.java:733)\n\tat android.os.Handler.dispatchMessage(Handler.java:95)\n\tat android.os.Looper.loop(Looper.java:136)\n\tat android.app.ActivityThread.main(ActivityThread.java:5094)\n\tat java.lang.reflect.Method.invokeNative(Native Method)\n\tat java.lang.reflect.Method.invoke(Method.java:515)\n\tat com.android.internal.os.ZygoteInit$MethodAndArgsCaller.run(ZygoteInit.java:792)\n\tat com.android.internal.os.ZygoteInit.main(ZygoteInit.java:608)\n\tat dalvik.system.NativeStart.main(Native Method)\n",
            "errorname": "java.lang.NullPointerException",
            "errorclassname": "tws.app.search.air.activitys.ActyRSchResult",
            "linenum": "1951",
            "errorweight": 10,
            "recur": 0,
            "eventpath": null,
            "wifion": 2,
            "gpson": 2,
            "mobileon": 0,
            "totalmemusage": 91,
            "gain1": null,
            "gain2": null,
            "pid": 878
        },
        {
            "iderror": 387770,
            "rank": 0,
            "autodetermine": 0,
            "status": 0,
            "numofinstances": 2,
            "createdate": "2015-04-20T04:12:30Z",
            "lastdate": "2015-04-20T04:12:48Z",
            "callstack": "java.lang.NullPointerException\n\tat android.support.v4.app.BackStackRecord.doAddOp(BackStackRecord.java:394)\n\tat android.support.v4.app.BackStackRecord.add(BackStackRecord.java:389)\n\tat android.support.v4.app.FragmentPagerAdapter.instantiateItem(FragmentPagerAdapter.java:99)\n\tat android.support.v4.view.ViewPager.addNewItem(ViewPager.java:829)\n\tat android.support.v4.view.ViewPager.populate(ViewPager.java:979)\n\tat android.support.v4.view.ViewPager.populate(ViewPager.java:911)\n\tat android.support.v4.view.ViewPager.onMeasure(ViewPager.java:1432)\n\tat android.view.View.measure(View.java:16664)\n\tat android.widget.RelativeLayout.measureChildHorizontal(RelativeLayout.java:719)\n\tat android.widget.RelativeLayout.onMeasure(RelativeLayout.java:455)\n\tat android.view.View.measure(View.java:16664)\n\tat android.view.ViewGroup.measureChildWithMargins(ViewGroup.java:5173)\n\tat android.widget.FrameLayout.onMeasure(FrameLayout.java:310)\n\tat android.view.View.measure(View.java:16664)\n\tat android.view.ViewGroup.measureChildWithMargins(ViewGroup.java:5173)\n\tat android.widget.LinearLayout.measureChildBeforeLayout(LinearLayout.java:1415)\n\tat android.widget.LinearLayout.measureVertical(LinearLayout.java:706)\n\tat android.widget.LinearLayout.onMeasure(LinearLayout.java:599)\n\tat android.view.View.measure(View.java:16664)\n\tat android.view.ViewGroup.measureChildWithMargins(ViewGroup.java:5173)\n\tat android.widget.FrameLayout.onMeasure(FrameLayout.java:310)\n\tat com.android.internal.policy.impl.PhoneWindow$DecorView.onMeasure(PhoneWindow.java:2536)\n\tat android.view.View.measure(View.java:16664)\n\tat android.view.ViewRootImpl.performMeasure(ViewRootImpl.java:2078)\n\tat android.view.ViewRootImpl.measureHierarchy(ViewRootImpl.java:1234)\n\tat android.view.ViewRootImpl.performTraversals(ViewRootImpl.java:1416)\n\tat android.view.ViewRootImpl.doTraversal(ViewRootImpl.java:1121)\n\tat android.view.ViewRootImpl$TraversalRunnable.run(ViewRootImpl.java:6030)\n\tat android.view.Choreographer$CallbackRecord.run(Choreographer.java:761)\n\tat android.view.Choreographer.doCallbacks(Choreographer.java:574)\n\tat android.view.Choreographer.doFrame(Choreographer.java:544)\n\tat android.view.Choreographer$FrameDisplayEventReceiver.run(Choreographer.java:747)\n\tat android.os.Handler.handleCallback(Handler.java:733)\n\tat android.os.Handler.dispatchMessage(Handler.java:95)\n\tat android.os.Looper.loop(Looper.java:136)\n\tat android.app.ActivityThread.main(ActivityThread.java:5094)\n\tat java.lang.reflect.Method.invokeNative(Native Method)\n\tat java.lang.reflect.Method.invoke(Method.java:515)\n\tat com.android.internal.os.ZygoteInit$MethodAndArgsCaller.run(ZygoteInit.java:792)\n\tat com.android.internal.os.ZygoteInit.main(ZygoteInit.java:608)\n\tat dalvik.system.NativeStart.main(Native Method)\n",
            "errorname": "java.lang.NullPointerException",
            "errorclassname": "android.support.v4.app.BackStackRecord",
            "linenum": "394",
            "errorweight": 10,
            "recur": 0,
            "eventpath": null,
            "wifion": 2,
            "gpson": 2,
            "mobileon": 0,
            "totalmemusage": 38,
            "gain1": null,
            "gain2": null,
            "pid": 878
        },
        {
            "iderror": 387795,
            "rank": 0,
            "autodetermine": 0,
            "status": 0,
            "numofinstances": 3,
            "createdate": "2015-04-20T04:27:51Z",
            "lastdate": "2015-04-20T04:30:31Z",
            "callstack": "java.lang.NullPointerException\n\tat tws.app.search.air.activitys.ActyRSchResult.onClick(ActyRSchResult.java:1955)\n\tat android.view.View.performClick(View.java:4473)\n\tat android.view.View$PerformClick.run(View.java:18589)\n\tat android.os.Handler.handleCallback(Handler.java:733)\n\tat android.os.Handler.dispatchMessage(Handler.java:95)\n\tat android.os.Looper.loop(Looper.java:136)\n\tat android.app.ActivityThread.main(ActivityThread.java:5094)\n\tat java.lang.reflect.Method.invokeNative(Native Method)\n\tat java.lang.reflect.Method.invoke(Method.java:515)\n\tat com.android.internal.os.ZygoteInit$MethodAndArgsCaller.run(ZygoteInit.java:792)\n\tat com.android.internal.os.ZygoteInit.main(ZygoteInit.java:608)\n\tat dalvik.system.NativeStart.main(Native Method)\n",
            "errorname": "java.lang.NullPointerException",
            "errorclassname": "tws.app.search.air.activitys.ActyRSchResult",
            "linenum": "1955",
            "errorweight": 10,
            "recur": 0,
            "eventpath": null,
            "wifion": 3,
            "gpson": 3,
            "mobileon": 0,
            "totalmemusage": 129,
            "gain1": null,
            "gain2": null,
            "pid": 878
        },
        {
            "iderror": 387802,
            "rank": 0,
            "autodetermine": 0,
            "status": 0,
            "numofinstances": 4,
            "createdate": "2015-04-20T04:35:49Z",
            "lastdate": "2015-04-20T06:49:17Z",
            "callstack": "java.lang.NullPointerException\n\tat tws.app.search.air.activitys.ActyRSchResult.onClick(ActyRSchResult.java:1956)\n\tat android.view.View.performClick(View.java:4473)\n\tat android.view.View$PerformClick.run(View.java:18589)\n\tat android.os.Handler.handleCallback(Handler.java:733)\n\tat android.os.Handler.dispatchMessage(Handler.java:95)\n\tat android.os.Looper.loop(Looper.java:136)\n\tat android.app.ActivityThread.main(ActivityThread.java:5094)\n\tat java.lang.reflect.Method.invokeNative(Native Method)\n\tat java.lang.reflect.Method.invoke(Method.java:515)\n\tat com.android.internal.os.ZygoteInit$MethodAndArgsCaller.run(ZygoteInit.java:792)\n\tat com.android.internal.os.ZygoteInit.main(ZygoteInit.java:608)\n\tat dalvik.system.NativeStart.main(Native Method)\n",
            "errorname": "java.lang.NullPointerException",
            "errorclassname": "tws.app.search.air.activitys.ActyRSchResult",
            "linenum": "1956",
            "errorweight": 10,
            "recur": 0,
            "eventpath": null,
            "wifion": 4,
            "gpson": 4,
            "mobileon": 0,
            "totalmemusage": 234,
            "gain1": null,
            "gain2": null,
            "pid": 878
        },
        {
            "iderror": 388973,
            "rank": 0,
            "autodetermine": 0,
            "status": 1,
            "numofinstances": 1,
            "createdate": "2015-04-21T00:43:15Z",
            "lastdate": "2015-04-21T00:43:15Z",
            "callstack": "java.lang.NullPointerException\n\tat tws.air.route.VertexManager.MakeVertextData(SourceFile:68)\n\tat tws.air.route.RouteManager.SetLinkData(SourceFile:389)\n\tat tws.air.NaviAdapter.NaviRouteInfoAdapter.SetSelectedRouteInfo(SourceFile:231)\n\tat tws.air.inaviair.M_NaviMsgHandler.a(SourceFile:2913)\n\tat tws.air.inaviair.M_NaviMsgHandler.ProcessNaviMessage(SourceFile:1222)\n\tat tws.air.inaviair.UIActivity.SendNaviMessage(SourceFile:2080)\n\tat tws.air.inaviair.M_NaviMainThread.run(SourceFile:2254)\n\tat java.lang.Thread.run(Thread.java:841)\n",
            "errorname": "java.lang.NullPointerException",
            "errorclassname": "tws.air.route.VertexManager",
            "linenum": "68",
            "errorweight": 10,
            "recur": 0,
            "eventpath": null,
            "wifion": 1,
            "gpson": 1,
            "mobileon": 0,
            "totalmemusage": 55,
            "gain1": null,
            "gain2": null,
            "pid": 878
        },
        {
            "iderror": 389370,
            "rank": 0,
            "autodetermine": 0,
            "status": 1,
            "numofinstances": 1,
            "createdate": "2015-04-21T06:34:50Z",
            "lastdate": "2015-04-21T06:34:50Z",
            "callstack": "java.lang.NullPointerException\n\tat tws.air.savepoint.NaviSavePointListAdapter.a(SourceFile:476)\n\tat tws.air.savepoint.NaviSavePointListAdapter.a(SourceFile:436)\n\tat tws.air.savepoint.NaviSavePointListAdapter.a(SourceFile:370)\n\tat tws.air.savepoint.NaviSavePointListAdapter$1.handleMessage(SourceFile:550)\n\tat android.os.Handler.dispatchMessage(Handler.java:102)\n\tat android.os.Looper.loop(Looper.java:136)\n\tat android.app.ActivityThread.main(ActivityThread.java:5103)\n\tat java.lang.reflect.Method.invokeNative(Native Method)\n\tat java.lang.reflect.Method.invoke(Method.java:515)\n\tat com.android.internal.os.ZygoteInit$MethodAndArgsCaller.run(ZygoteInit.java:790)\n\tat com.android.internal.os.ZygoteInit.main(ZygoteInit.java:606)\n\tat dalvik.system.NativeStart.main(Native Method)\n",
            "errorname": "java.lang.NullPointerException",
            "errorclassname": "tws.air.savepoint.NaviSavePointListAdapter",
            "linenum": "476",
            "errorweight": 10,
            "recur": 0,
            "eventpath": null,
            "wifion": 1,
            "gpson": 1,
            "mobileon": 0,
            "totalmemusage": 42,
            "gain1": null,
            "gain2": null,
            "pid": 878
        },
        {
            "iderror": 389721,
            "rank": 0,
            "autodetermine": 0,
            "status": 1,
            "numofinstances": 2,
            "createdate": "2015-04-21T10:28:39Z",
            "lastdate": "2015-04-22T01:28:27Z",
            "callstack": "java.lang.NullPointerException\n\tat tws.air.inaviair.UIActivity$1.handleMessage(UIActivity.java:1122)\n\tat android.os.Handler.dispatchMessage(Handler.java:99)\n\tat android.os.Looper.loop(Looper.java:130)\n\tat android.app.ActivityThread.main(ActivityThread.java:3691)\n\tat java.lang.reflect.Method.invokeNative(Native Method)\n\tat java.lang.reflect.Method.invoke(Method.java:507)\n\tat com.android.internal.os.ZygoteInit$MethodAndArgsCaller.run(ZygoteInit.java:847)\n\tat com.android.internal.os.ZygoteInit.main(ZygoteInit.java:605)\n\tat dalvik.system.NativeStart.main(Native Method)\n",
            "errorname": "java.lang.NullPointerException",
            "errorclassname": "tws.air.inaviair.UIActivity$1",
            "linenum": "1122",
            "errorweight": 10,
            "recur": 0,
            "eventpath": null,
            "wifion": 2,
            "gpson": 2,
            "mobileon": 0,
            "totalmemusage": 110,
            "gain1": null,
            "gain2": null,
            "pid": 878
        },
        {
            "iderror": 389823,
            "rank": 0,
            "autodetermine": 0,
            "status": 0,
            "numofinstances": 3,
            "createdate": "2015-04-21T11:41:17Z",
            "lastdate": "2015-04-21T11:51:59Z",
            "callstack": "java.lang.NullPointerException\n\tat tws.app.search.air.Search.SearchResultList.<init>(SearchResultList.java:2814)\n\tat tws.app.search.air.Search.SearchResultListAdapter.getView(SearchResultListAdapter.java:357)\n\tat android.widget.HeaderViewListAdapter.getView(HeaderViewListAdapter.java:220)\n\tat android.widget.AbsListView.obtainView(AbsListView.java:2329)\n\tat android.widget.ListView.makeAndAddView(ListView.java:1802)\n\tat android.widget.ListView.fillDown(ListView.java:698)\n\tat android.widget.ListView.fillFromTop(ListView.java:759)\n\tat android.widget.ListView.layoutChildren(ListView.java:1637)\n\tat android.widget.AbsListView.onLayout(AbsListView.java:2157)\n\tat android.view.View.layout(View.java:14984)\n\tat android.view.ViewGroup.layout(ViewGroup.java:4679)\n\tat android.widget.LinearLayout.setChildFrame(LinearLayout.java:1682)\n\tat android.widget.LinearLayout.layoutVertical(LinearLayout.java:1536)\n\tat android.widget.LinearLayout.onLayout(LinearLayout.java:1445)\n\tat android.view.View.layout(View.java:14984)\n\tat android.view.ViewGroup.layout(ViewGroup.java:4679)\n\tat android.widget.RelativeLayout.onLayout(RelativeLayout.java:1055)\n\tat android.view.View.layout(View.java:14984)\n\tat android.view.ViewGroup.layout(ViewGroup.java:4679)\n\tat android.widget.LinearLayout.setChildFrame(LinearLayout.java:1682)\n\tat android.widget.LinearLayout.layoutVertical(LinearLayout.java:1536)\n\tat android.widget.LinearLayout.onLayout(LinearLayout.java:1445)\n\tat android.view.View.layout(View.java:14984)\n\tat android.view.ViewGroup.layout(ViewGroup.java:4679)\n\tat android.widget.FrameLayout.layoutChildren(FrameLayout.java:453)\n\tat android.widget.FrameLayout.onLayout(FrameLayout.java:388)\n\tat android.view.View.layout(View.java:14984)\n\tat android.view.ViewGroup.layout(ViewGroup.java:4679)\n\tat android.widget.FrameLayout.layoutChildren(FrameLayout.java:453)\n\tat android.widget.FrameLayout.onLayout(FrameLayout.java:388)\n\tat android.view.View.layout(View.java:14984)\n\tat android.view.ViewGroup.layout(ViewGroup.java:4679)\n\tat android.widget.LinearLayout.setChildFrame(LinearLayout.java:1682)\n\tat android.widget.LinearLayout.layoutVertical(LinearLayout.java:1536)\n\tat android.widget.LinearLayout.onLayout(LinearLayout.java:1445)\n\tat android.view.View.layout(View.java:14984)\n\tat android.view.ViewGroup.layout(ViewGroup.java:4679)\n\tat android.widget.FrameLayout.layoutChildren(FrameLayout.java:453)\n\tat android.widget.FrameLayout.onLayout(FrameLayout.java:388)\n\tat android.view.View.layout(View.java:14984)\n\tat android.view.ViewGroup.layout(ViewGroup.java:4679)\n\tat android.view.ViewRootImpl.performLayout(ViewRootImpl.java:2149)\n\tat android.view.ViewRootImpl.performTraversals(ViewRootImpl.java:1894)\n\tat android.view.ViewRootImpl.doTraversal(ViewRootImpl.java:1121)\n\tat android.view.ViewRootImpl$TraversalRunnable.run(ViewRootImpl.java:6030)\n\tat android.view.Choreographer$CallbackRecord.run(Choreographer.java:761)\n\tat android.view.Choreographer.doCallbacks(Choreographer.java:574)\n\tat android.view.Choreographer.doFrame(Choreographer.java:544)\n\tat android.view.Choreographer$FrameDisplayEventReceiver.run(Choreographer.java:747)\n\tat android.os.Handler.handleCallback(Handler.java:733)\n\tat android.os.Handler.dispatchMessage(Handler.java:95)\n\tat android.os.Looper.loop(Looper.java:136)\n\tat android.app.ActivityThread.main(ActivityThread.java:5094)\n\tat java.lang.reflect.Method.invokeNative(Native Method)\n\tat java.lang.reflect.Method.invoke(Method.java:515)\n\tat com.android.internal.os.ZygoteInit$MethodAndArgsCaller.run(ZygoteInit.java:792)\n\tat com.android.internal.os.ZygoteInit.main(ZygoteInit.java:608)\n\tat dalvik.system.NativeStart.main(Native Method)\n",
            "errorname": "java.lang.NullPointerException",
            "errorclassname": "tws.app.search.air.Search.SearchResultList",
            "linenum": "2814",
            "errorweight": 10,
            "recur": 0,
            "eventpath": null,
            "wifion": 3,
            "gpson": 3,
            "mobileon": 0,
            "totalmemusage": 158,
            "gain1": null,
            "gain2": null,
            "pid": 878
        }
    ]
}
