{
    "count": 23,
    "next": "http://localhost:8000/urqa/v2/api/27FF433A/errors?page=2",
    "previous": null,
    "results": [
        {
            "iderror": 383218,
            "rank": 0,
            "autodetermine": 0,
            "status": 0,
            "numofinstances": 1,
            "createdate": "2015-04-17T08:53:27Z",
            "lastdate": "2015-04-17T08:53:27Z",
            "callstack": "java.lang.RuntimeException: An error occured while executing doInBackground()\n\tat android.os.AsyncTask$3.done(AsyncTask.java:299)\n\tat java.util.concurrent.FutureTask.finishCompletion(FutureTask.java:352)\n\tat java.util.concurrent.FutureTask.setException(FutureTask.java:219)\n\tat java.util.concurrent.FutureTask.run(FutureTask.java:239)\n\tat java.util.concurrent.ThreadPoolExecutor.runWorker(ThreadPoolExecutor.java:1080)\n\tat java.util.concurrent.ThreadPoolExecutor$Worker.run(ThreadPoolExecutor.java:573)\n\tat java.lang.Thread.run(Thread.java:841)\nCaused by: java.lang.OutOfMemoryError\n\tat android.graphics.BitmapFactory.nativeDecodeByteArray(Native Method)\n\tat android.graphics.BitmapFactory.decodeByteArray(BitmapFactory.java:522)\n\tat android.graphics.BitmapFactory.decodeByteArray(BitmapFactory.java:540)\n\tat tws.air.oceanNavi.OceanNaviManager$a.a(SourceFile:520)\n\tat tws.air.oceanNavi.OceanNaviManager$a.doInBackground(SourceFile:1)\n\tat android.os.AsyncTask$2.call(AsyncTask.java:287)\n\tat java.util.concurrent.FutureTask.run(FutureTask.java:234)\n\t... 3 more\n",
            "errorname": "java.lang.RuntimeException: An error occured while executing doInBackground()",
            "errorclassname": "android.graphics.BitmapFactory",
            "linenum": "-2",
            "errorweight": 10,
            "recur": 0,
            "eventpath": null,
            "wifion": 0,
            "gpson": 1,
            "mobileon": 1,
            "totalmemusage": 63,
            "gain1": null,
            "gain2": null,
            "pid": 878
        },
        {
            "iderror": 383334,
            "rank": 0,
            "autodetermine": 0,
            "status": 0,
            "numofinstances": 1,
            "createdate": "2015-04-17T09:41:22Z",
            "lastdate": "2015-04-17T09:41:22Z",
            "callstack": "java.lang.OutOfMemoryError\n\tat android.graphics.BitmapFactory.nativeDecodeAsset(Native Method)\n\tat android.graphics.BitmapFactory.decodeStream(BitmapFactory.java:596)\n\tat android.graphics.BitmapFactory.decodeResourceStream(BitmapFactory.java:444)\n\tat android.graphics.drawable.Drawable.createFromResourceStream(Drawable.java:832)\n\tat android.content.res.Resources.loadDrawable(Resources.java:2988)\n\tat android.content.res.Resources.getDrawable(Resources.java:1558)\n\tat android.view.View.setBackgroundResource(View.java:15714)\n\tat tws.air.OnClickListener.MapAirNaviHelpLayout.layoutRotate(SourceFile:300)\n\tat tws.air.OnClickListener.ClkLtnerGuideDriveLayout.p(SourceFile:1516)\n\tat tws.air.OnClickListener.ClkLtnerGuideDriveLayout.n(SourceFile:1481)\n\tat tws.air.OnClickListener.ClkLtnerGuideDriveLayout.ProcMsgHandler(SourceFile:6998)\n\tat tws.air.OnClickListener.ClkLtnerGuideDriveLayout$30.handleMessage(SourceFile:711)\n\tat android.os.Handler.dispatchMessage(Handler.java:99)\n\tat android.os.Looper.loop(Looper.java:137)\n\tat android.app.ActivityThread.main(ActivityThread.java:5493)\n\tat java.lang.reflect.Method.invokeNative(Native Method)\n\tat java.lang.reflect.Method.invoke(Method.java:525)\n\tat com.android.internal.os.ZygoteInit$MethodAndArgsCaller.run(ZygoteInit.java:1209)\n\tat com.android.internal.os.ZygoteInit.main(ZygoteInit.java:1025)\n\tat dalvik.system.NativeStart.main(Native Method)\n",
            "errorname": "java.lang.OutOfMemoryError",
            "errorclassname": "android.graphics.BitmapFactory",
            "linenum": "-2",
            "errorweight": 10,
            "recur": 0,
            "eventpath": null,
            "wifion": 1,
            "gpson": 1,
            "mobileon": 0,
            "totalmemusage": 63,
            "gain1": null,
            "gain2": null,
            "pid": 878
        },
        {
            "iderror": 383347,
            "rank": 0,
            "autodetermine": 0,
            "status": 1,
            "numofinstances": 4,
            "createdate": "2015-04-17T09:48:24Z",
            "lastdate": "2015-04-20T10:01:08Z",
            "callstack": "java.lang.OutOfMemoryError\n\tat android.graphics.Bitmap.nativeCreate(Native Method)\n\tat android.graphics.Bitmap.createBitmap(Bitmap.java:801)\n\tat android.graphics.Bitmap.createBitmap(Bitmap.java:825)\n\tat tws.air.inaviair.WebpMemCache.webpToBitmap(WebpMemCache.java:136)\n\tat tws.air.inaviair.WebpMemCache.getImage(WebpMemCache.java:140)\n\tat tws.air.inaviair.air_util.getWebpImage(air_util.java:668)\n\tat tws.air.OnClickListener.MapDrawerAirExpand.DrawBitmap(MapDrawerAirExpand.java:116)\n\tat tws.air.OnClickListener.MapUIDrawer.DrawExpand(MapUIDrawer.java:382)\n\tat tws.air.OnClickListener.ClkLtnerGuideDriveLayout.ProcMsgHandler(ClkLtnerGuideDriveLayout.java:7302)\n\tat tws.air.OnClickListener.ClkLtnerGuideDriveLayout$4.handleMessage(ClkLtnerGuideDriveLayout.java:711)\n\tat android.os.Handler.dispatchMessage(Handler.java:99)\n\tat android.os.Looper.loop(Looper.java:137)\n\tat android.app.ActivityThread.main(ActivityThread.java:5493)\n\tat java.lang.reflect.Method.invokeNative(Native Method)\n\tat java.lang.reflect.Method.invoke(Method.java:525)\n\tat com.android.internal.os.ZygoteInit$MethodAndArgsCaller.run(ZygoteInit.java:1209)\n\tat com.android.internal.os.ZygoteInit.main(ZygoteInit.java:1025)\n\tat dalvik.system.NativeStart.main(Native Method)\n",
            "errorname": "java.lang.OutOfMemoryError",
            "errorclassname": "android.graphics.Bitmap",
            "linenum": "-2",
            "errorweight": 10,
            "recur": 0,
            "eventpath": null,
            "wifion": 4,
            "gpson": 4,
            "mobileon": 0,
            "totalmemusage": 253,
            "gain1": null,
            "gain2": null,
            "pid": 878
        },
        {
            "iderror": 383413,
            "rank": 0,
            "autodetermine": 0,
            "status": 0,
            "numofinstances": 1,
            "createdate": "2015-04-17T10:14:23Z",
            "lastdate": "2015-04-17T10:14:23Z",
            "callstack": "java.lang.RuntimeException: Unable to start activity ComponentInfo{com.thinkware.inaviair/tws.air.activity2.AirHome}: android.view.InflateException: Binary XML file line #286: Error inflating class <unknown>\n\tat android.app.ActivityThread.performLaunchActivity(ActivityThread.java:2308)\n\tat android.app.ActivityThread.handleLaunchActivity(ActivityThread.java:2362)\n\tat android.app.ActivityThread.access$700(ActivityThread.java:168)\n\tat android.app.ActivityThread$H.handleMessage(ActivityThread.java:1329)\n\tat android.os.Handler.dispatchMessage(Handler.java:99)\n\tat android.os.Looper.loop(Looper.java:137)\n\tat android.app.ActivityThread.main(ActivityThread.java:5493)\n\tat java.lang.reflect.Method.invokeNative(Native Method)\n\tat java.lang.reflect.Method.invoke(Method.java:525)\n\tat com.android.internal.os.ZygoteInit$MethodAndArgsCaller.run(ZygoteInit.java:1209)\n\tat com.android.internal.os.ZygoteInit.main(ZygoteInit.java:1025)\n\tat dalvik.system.NativeStart.main(Native Method)\nCaused by: android.view.InflateException: Binary XML file line #286: Error inflating class <unknown>\n\tat android.view.LayoutInflater.createView(LayoutInflater.java:626)\n\tat com.android.internal.policy.impl.PhoneLayoutInflater.onCreateView(PhoneLayoutInflater.java:56)\n\tat android.view.LayoutInflater.onCreateView(LayoutInflater.java:675)\n\tat android.view.LayoutInflater.createViewFromTag(LayoutInflater.java:700)\n\tat android.view.LayoutInflater.rInflate(LayoutInflater.java:761)\n\tat android.view.LayoutInflater.parseInclude(LayoutInflater.java:855)\n\tat android.view.LayoutInflater.rInflate(LayoutInflater.java:751)\n\tat android.view.LayoutInflater.inflate(LayoutInflater.java:498)\n\tat android.view.LayoutInflater.inflate(LayoutInflater.java:398)\n\tat android.view.LayoutInflater.inflate(LayoutInflater.java:354)\n\tat com.android.internal.policy.impl.PhoneWindow.setContentView(PhoneWindow.java:361)\n\tat android.app.Activity.setContentView(Activity.java:1956)\n\tat tws.air.activity2.AirHome.onCreate(SourceFile:202)\n\tat android.app.Activity.performCreate(Activity.java:5372)\n\tat android.app.Instrumentation.callActivityOnCreate(Instrumentation.java:1104)\n\tat android.app.ActivityThread.performLaunchActivity(ActivityThread.java:2270)\n\t... 11 more\nCaused by: java.lang.reflect.InvocationTargetException\n\tat java.lang.reflect.Constructor.constructNative(Native Method)\n\tat java.lang.reflect.Constructor.newInstance(Constructor.java:417)\n\tat android.view.LayoutInflater.createView(LayoutInflater.java:600)\n\t... 26 more\nCaused by: java.lang.OutOfMemoryError\n\tat android.graphics.BitmapFactory.nativeDecodeAsset(Native Method)\n\tat android.graphics.BitmapFactory.decodeStream(BitmapFactory.java:596)\n\tat android.graphics.BitmapFactory.decodeResourceStream(BitmapFactory.java:444)\n\tat android.graphics.drawable.Drawable.createFromResourceStream(Drawable.java:832)\n\tat android.content.res.Resources.loadDrawable(Resources.java:2988)\n\tat android.content.res.TypedArray.getDrawable(TypedArray.java:602)\n\tat android.view.View.<init>(View.java:3577)\n\tat android.view.ViewGroup.<init>(ViewGroup.java:475)\n\tat android.widget.LinearLayout.<init>(LinearLayout.java:176)\n\tat android.widget.LinearLayout.<init>(LinearLayout.java:172)\n\t... 29 more\n",
            "errorname": "java.lang.RuntimeException: Unable to start activity ComponentInfo{com.thinkware.inaviair/tws.air.activity2.AirHome}: android.view.InflateException: Binary XML file line #286: Error inflating class <unknown>",
            "errorclassname": "android.view.LayoutInflater",
            "linenum": "626",
            "errorweight": 10,
            "recur": 0,
            "eventpath": null,
            "wifion": 1,
            "gpson": 1,
            "mobileon": 0,
            "totalmemusage": 63,
            "gain1": null,
            "gain2": null,
            "pid": 878
        },
        {
            "iderror": 383470,
            "rank": 0,
            "autodetermine": 0,
            "status": 0,
            "numofinstances": 2,
            "createdate": "2015-04-17T10:42:29Z",
            "lastdate": "2015-04-20T00:33:51Z",
            "callstack": "java.lang.NullPointerException\n\tat tws.air.Search.RSearchResultListAdapter.StartAniMoreView(SourceFile:707)\n\tat tws.air.activity2.ActyRSchResult.onGroupClick(SourceFile:1655)\n\tat tws.air.activity2.ActyRSchResult$2.handleMessage(SourceFile:852)\n\tat android.os.Handler.dispatchMessage(Handler.java:99)\n\tat android.os.Looper.loop(Looper.java:137)\n\tat android.app.ActivityThread.main(ActivityThread.java:5493)\n\tat java.lang.reflect.Method.invokeNative(Native Method)\n\tat java.lang.reflect.Method.invoke(Method.java:525)\n\tat com.android.internal.os.ZygoteInit$MethodAndArgsCaller.run(ZygoteInit.java:1209)\n\tat com.android.internal.os.ZygoteInit.main(ZygoteInit.java:1025)\n\tat dalvik.system.NativeStart.main(Native Method)\n",
            "errorname": "java.lang.NullPointerException",
            "errorclassname": "tws.air.Search.RSearchResultListAdapter",
            "linenum": "707",
            "errorweight": 10,
            "recur": 0,
            "eventpath": null,
            "wifion": 2,
            "gpson": 2,
            "mobileon": 0,
            "totalmemusage": 123,
            "gain1": null,
            "gain2": null,
            "pid": 878
        },
        {
            "iderror": 383507,
            "rank": 0,
            "autodetermine": 0,
            "status": 0,
            "numofinstances": 1,
            "createdate": "2015-04-17T11:12:40Z",
            "lastdate": "2015-04-17T11:12:40Z",
            "callstack": "java.lang.RuntimeException: Error receiving broadcast Intent { act=android.intent.action.TIME_TICK flg=0x40000014 (has extras) } in tws.air.inaviair.UIActivity$a@446f9fb0\n\tat android.app.LoadedApk$ReceiverDispatcher$Args.run(LoadedApk.java:766)\n\tat android.os.Handler.handleCallback(Handler.java:615)\n\tat android.os.Handler.dispatchMessage(Handler.java:92)\n\tat android.os.Looper.loop(Looper.java:137)\n\tat android.app.ActivityThread.main(ActivityThread.java:4921)\n\tat java.lang.reflect.Method.invokeNative(Native Method)\n\tat java.lang.reflect.Method.invoke(Method.java:511)\n\tat com.android.internal.os.ZygoteInit$MethodAndArgsCaller.run(ZygoteInit.java:1006)\n\tat com.android.internal.os.ZygoteInit.main(ZygoteInit.java:773)\n\tat dalvik.system.NativeStart.main(Native Method)\nCaused by: java.lang.NullPointerException\n\tat java.lang.String.<init>(String.java:238)\n\tat tws.air.inaviair.M_NaviMainThread.EUC2UTF(SourceFile:7165)\n\tat tws.air.inaviair.M_NaviMainThread.a(SourceFile:6524)\n\tat tws.air.inaviair.M_NaviMainThread.HighWayDataProc(SourceFile:6168)\n\tat tws.air.inaviair.M_NaviMainThread.setBCalcCost(SourceFile:5727)\n\tat tws.air.inaviair.UIActivity$a.onReceive(SourceFile:8592)\n\tat android.app.LoadedApk$ReceiverDispatcher$Args.run(LoadedApk.java:756)\n\t... 9 more\n",
            "errorname": "java.lang.RuntimeException: Error receiving broadcast Intent { act=android.intent.action.TIME_TICK flg=0x40000014 (has extras) } in tws.air.inaviair.UIActivity$a@446f9fb0",
            "errorclassname": "java.lang.String",
            "linenum": "238",
            "errorweight": 10,
            "recur": 0,
            "eventpath": null,
            "wifion": 1,
            "gpson": 1,
            "mobileon": 0,
            "totalmemusage": 53,
            "gain1": null,
            "gain2": null,
            "pid": 878
        },
        {
            "iderror": 383550,
            "rank": 0,
            "autodetermine": 0,
            "status": 0,
            "numofinstances": 1,
            "createdate": "2015-04-17T11:35:37Z",
            "lastdate": "2015-04-17T11:35:37Z",
            "callstack": "java.lang.IllegalStateException: The content of the adapter has changed but ListView did not receive a notification. Make sure the content of your adapter is not modified from a background thread, but only from the UI thread. [in ListView(16908298, class android.widget.ListView) with Adapter(class android.widget.HeaderViewListAdapter)]\n\tat android.widget.ListView.layoutChildren(ListView.java:1544)\n\tat android.widget.AbsListView.onLayout(AbsListView.java:2296)\n\tat android.view.View.layout(View.java:14063)\n\tat android.view.ViewGroup.layout(ViewGroup.java:4605)\n\tat android.widget.LinearLayout.setChildFrame(LinearLayout.java:1655)\n\tat android.widget.LinearLayout.layoutVertical(LinearLayout.java:1513)\n\tat android.widget.LinearLayout.onLayout(LinearLayout.java:1426)\n\tat android.view.View.layout(View.java:14063)\n\tat android.view.ViewGroup.layout(ViewGroup.java:4605)\n\tat android.widget.RelativeLayout.onLayout(RelativeLayout.java:948)\n\tat android.view.View.layout(View.java:14063)\n\tat android.view.ViewGroup.layout(ViewGroup.java:4605)\n\tat android.widget.LinearLayout.setChildFrame(LinearLayout.java:1655)\n\tat android.widget.LinearLayout.layoutVertical(LinearLayout.java:1513)\n\tat android.widget.LinearLayout.onLayout(LinearLayout.java:1426)\n\tat android.view.View.layout(View.java:14063)\n\tat android.view.ViewGroup.layout(ViewGroup.java:4605)\n\tat android.widget.FrameLayout.onLayout(FrameLayout.java:448)\n\tat android.view.View.layout(View.java:14063)\n\tat android.view.ViewGroup.layout(ViewGroup.java:4605)\n\tat android.widget.FrameLayout.onLayout(FrameLayout.java:448)\n\tat android.view.View.layout(View.java:14063)\n\tat android.view.ViewGroup.layout(ViewGroup.java:4605)\n\tat android.widget.LinearLayout.setChildFrame(LinearLayout.java:1655)\n\tat android.widget.LinearLayout.layoutVertical(LinearLayout.java:1513)\n\tat android.widget.LinearLayout.onLayout(LinearLayout.java:1426)\n\tat android.view.View.layout(View.java:14063)\n\tat android.view.ViewGroup.layout(ViewGroup.java:4605)\n\tat android.widget.FrameLayout.onLayout(FrameLayout.java:448)\n\tat android.view.View.layout(View.java:14063)\n\tat android.view.ViewGroup.layout(ViewGroup.java:4605)\n\tat android.view.ViewRootImpl.performLayout(ViewRootImpl.java:1994)\n\tat android.view.ViewRootImpl.performTraversals(ViewRootImpl.java:1815)\n\tat android.view.ViewRootImpl.doTraversal(ViewRootImpl.java:1112)\n\tat android.view.ViewRootImpl$TraversalRunnable.run(ViewRootImpl.java:4518)\n\tat android.view.Choreographer$CallbackRecord.run(Choreographer.java:725)\n\tat android.view.Choreographer.doCallbacks(Choreographer.java:555)\n\tat android.view.Choreographer.doFrame(Choreographer.java:525)\n\tat android.view.Choreographer$FrameDisplayEventReceiver.run(Choreographer.java:711)\n\tat android.os.Handler.handleCallback(Handler.java:615)\n\tat android.os.Handler.dispatchMessage(Handler.java:92)\n\tat android.os.Looper.loop(Looper.java:137)\n\tat android.app.ActivityThread.main(ActivityThread.java:4921)\n\tat java.lang.reflect.Method.invokeNative(Native Method)\n\tat java.lang.reflect.Method.invoke(Method.java:511)\n\tat com.android.internal.os.ZygoteInit$MethodAndArgsCaller.run(ZygoteInit.java:1006)\n\tat com.android.internal.os.ZygoteInit.main(ZygoteInit.java:773)\n\tat dalvik.system.NativeStart.main(Native Method)\n",
            "errorname": "java.lang.IllegalStateException: The content of the adapter has changed but ListView did not receive a notification. Make sure the content of your adapter is not modified from a background thread, but only from the UI thread. [in ListView(16908298, class android.widget.ListView) with Adapter(class android.widget.HeaderViewListAdapter)]",
            "errorclassname": "android.widget.ListView",
            "linenum": "1544",
            "errorweight": 10,
            "recur": 0,
            "eventpath": null,
            "wifion": 1,
            "gpson": 1,
            "mobileon": 0,
            "totalmemusage": 53,
            "gain1": null,
            "gain2": null,
            "pid": 878
        },
        {
            "iderror": 383558,
            "rank": 0,
            "autodetermine": 0,
            "status": 0,
            "numofinstances": 1,
            "createdate": "2015-04-17T11:37:59Z",
            "lastdate": "2015-04-17T11:37:59Z",
            "callstack": "java.lang.NullPointerException\n\tat tws.air.inaviair.UIActivity.InitMap(SourceFile:4087)\n\tat tws.air.inaviair.UIActivity$1$1.run(SourceFile:1172)\n\tat java.lang.Thread.run(Thread.java:856)\n",
            "errorname": "java.lang.NullPointerException",
            "errorclassname": "tws.air.inaviair.UIActivity",
            "linenum": "4087",
            "errorweight": 10,
            "recur": 0,
            "eventpath": null,
            "wifion": 1,
            "gpson": 1,
            "mobileon": 0,
            "totalmemusage": 45,
            "gain1": null,
            "gain2": null,
            "pid": 878
        },
        {
            "iderror": 385859,
            "rank": 0,
            "autodetermine": 0,
            "status": 1,
            "numofinstances": 9,
            "createdate": "2015-04-18T23:52:29Z",
            "lastdate": "2015-04-20T02:44:25Z",
            "callstack": "java.lang.NullPointerException\n\tat tws.app.search.air.activitys.ActyRSchResult.onClick(ActyRSchResult.java:1949)\n\tat android.view.View.performClick(View.java:4473)\n\tat android.view.View$PerformClick.run(View.java:18589)\n\tat android.os.Handler.handleCallback(Handler.java:733)\n\tat android.os.Handler.dispatchMessage(Handler.java:95)\n\tat android.os.Looper.loop(Looper.java:136)\n\tat android.app.ActivityThread.main(ActivityThread.java:5094)\n\tat java.lang.reflect.Method.invokeNative(Native Method)\n\tat java.lang.reflect.Method.invoke(Method.java:515)\n\tat com.android.internal.os.ZygoteInit$MethodAndArgsCaller.run(ZygoteInit.java:792)\n\tat com.android.internal.os.ZygoteInit.main(ZygoteInit.java:608)\n\tat dalvik.system.NativeStart.main(Native Method)\n",
            "errorname": "java.lang.NullPointerException",
            "errorclassname": "tws.app.search.air.activitys.ActyRSchResult",
            "linenum": "1949",
            "errorweight": 10,
            "recur": 0,
            "eventpath": null,
            "wifion": 7,
            "gpson": 7,
            "mobileon": 2,
            "totalmemusage": 420,
            "gain1": null,
            "gain2": null,
            "pid": 878
        },
        {
            "iderror": 387574,
            "rank": 0,
            "autodetermine": 0,
            "status": 0,
            "numofinstances": 3,
            "createdate": "2015-04-20T01:11:37Z",
            "lastdate": "2015-04-20T07:00:55Z",
            "callstack": "java.lang.NullPointerException\n\tat tws.app.search.air.activitys.ActyRSchResult.onClick(ActyRSchResult.java:1954)\n\tat android.view.View.performClick(View.java:4473)\n\tat android.view.View$PerformClick.run(View.java:18589)\n\tat android.os.Handler.handleCallback(Handler.java:733)\n\tat android.os.Handler.dispatchMessage(Handler.java:95)\n\tat android.os.Looper.loop(Looper.java:136)\n\tat android.app.ActivityThread.main(ActivityThread.java:5094)\n\tat java.lang.reflect.Method.invokeNative(Native Method)\n\tat java.lang.reflect.Method.invoke(Method.java:515)\n\tat com.android.internal.os.ZygoteInit$MethodAndArgsCaller.run(ZygoteInit.java:792)\n\tat com.android.internal.os.ZygoteInit.main(ZygoteInit.java:608)\n\tat dalvik.system.NativeStart.main(Native Method)\n",
            "errorname": "java.lang.NullPointerException",
            "errorclassname": "tws.app.search.air.activitys.ActyRSchResult",
            "linenum": "1954",
            "errorweight": 10,
            "recur": 0,
            "eventpath": null,
            "wifion": 3,
            "gpson": 1,
            "mobileon": 0,
            "totalmemusage": 177,
            "gain1": null,
            "gain2": null,
            "pid": 878
        }
    ]
}
